[
    {
        "title": "Perspectives on label-free microscopy of heterogeneous and dynamic biological systems",
        "abstract": "No abstract available",
        "citation_count": "No citation data available"
    },
    {
        "title": "Virtual Reality Technology and Artificial Intelligence for Television and Film Animation",
        "abstract": "No abstract available",
        "citation_count": "No citation data available"
    },
    {
        "title": "AI-Enhanced Teaching Materials for Education: A Shift Towards Digitalization",
        "abstract": "No abstract available",
        "citation_count": "No citation data available"
    },
    {
        "title": "Diabetes and its associated factors: A Retrospective cohort analysis of a large database at Indus Hospital Health Network",
        "abstract": "No abstract available",
        "citation_count": "No citation data available"
    },
    {
        "title": "Overview of the Twitter conversation around #14F 2021 Catalonia regional election: an analysis of echo chambers and presence of social bots",
        "abstract": "No abstract available",
        "citation_count": "No citation data available"
    },
    {
        "title": "Neuropsychological outcomes in patients with ruptured anterior communicating artery aneurysms treated by clipping versus coiling: a systematic review and meta-analysis",
        "abstract": "No abstract available",
        "citation_count": "No citation data available"
    },
    {
        "title": "Personality of organizational social media accounts and its relationship with characteristics of their photos: analyses of startups’ Instagram photos",
        "abstract": "No abstract available",
        "citation_count": "No citation data available"
    },
    {
        "title": "Comparing code-free deep learning models to expert-designed models for detecting retinal diseases from optical coherence tomography",
        "abstract": "No abstract available",
        "citation_count": "No citation data available"
    },
    {
        "title": "Mandibular and dental measurements for sex determination using machine learning",
        "abstract": "No abstract available",
        "citation_count": "No citation data available"
    },
    {
        "title": "Applications of nature-inspired metaheuristic algorithms for tackling optimization problems across disciplines",
        "abstract": "No abstract available",
        "citation_count": "No citation data available"
    },
    {
        "title": "Detecting white spot lesions on post-orthodontic oral photographs using deep learning based on the YOLOv5x algorithm: a pilot study",
        "abstract": "No abstract available",
        "citation_count": "No citation data available"
    },
    {
        "title": "Memory-electroluminescence for multiple action-potentials combination in bio-inspired afferent nerves",
        "abstract": "No abstract available",
        "citation_count": "No citation data available"
    },
    {
        "title": "Energy-efficient superparamagnetic Ising machine and its application to traveling salesman problems",
        "abstract": "No abstract available",
        "citation_count": "No citation data available"
    },
    {
        "title": "A machine learning-based early diagnosis model for chronic kidney disease using SPegasos",
        "abstract": "No abstract available",
        "citation_count": "No citation data available"
    },
    {
        "title": "Multimodal workflows optimally predict response to repetitive transcranial magnetic stimulation in patients with schizophrenia: a multisite machine learning analysis",
        "abstract": "No abstract available",
        "citation_count": "No citation data available"
    },
    {
        "title": "RAS Dataset: A 3D Cardiac LGE-MRI Dataset for Segmentation of Right Atrial Cavity",
        "abstract": "No abstract available",
        "citation_count": "No citation data available"
    },
    {
        "title": "Longitudinal assessment of interstitial lung abnormalities on CT in patients with COPD using artificial intelligence-based segmentation: a prospective observational study",
        "abstract": "No abstract available",
        "citation_count": "No citation data available"
    },
    {
        "title": "Learning with AI Language Models: Guidelines for the Development and Scoring of Medical Questions for Higher Education",
        "abstract": "No abstract available",
        "citation_count": "No citation data available"
    },
    {
        "title": "Perceptions and attitudes of dental students and dentists in South Korea toward artificial intelligence: a subgroup analysis based on professional seniority",
        "abstract": "No abstract available",
        "citation_count": "No citation data available"
    },
    {
        "title": "Screening mammography performance according to breast density: a comparison between radiologists versus standalone intelligence detection",
        "abstract": "No abstract available",
        "citation_count": "No citation data available"
    },
    {
        "title": "A liquid metal-based module emulating the intelligent preying logic of flytrap",
        "abstract": "No abstract available",
        "citation_count": "No citation data available"
    },
    {
        "title": "Segmentation using large language models: A new typology of American neighborhoods",
        "abstract": "No abstract available",
        "citation_count": "No citation data available"
    },
    {
        "title": "Centralized smart energy monitoring system for legacy home appliances",
        "abstract": "No abstract available",
        "citation_count": "No citation data available"
    },
    {
        "title": "Artificial intelligence in chorioretinal pathology through fundoscopy: a comprehensive review",
        "abstract": "No abstract available",
        "citation_count": "No citation data available"
    },
    {
        "title": "Classification of laryngeal diseases including laryngeal cancer, benign mucosal disease, and vocal cord paralysis by artificial intelligence using voice analysis",
        "abstract": "No abstract available",
        "citation_count": "No citation data available"
    },
    {
        "title": "Artificial intelligence and medical education: application in classroom instruction and student assessment using a pharmacology &amp; therapeutics case study",
        "abstract": "No abstract available",
        "citation_count": "No citation data available"
    },
    {
        "title": "Optimization of hepatological clinical guidelines interpretation by large language models: a retrieval augmented generation-based framework",
        "abstract": "No abstract available",
        "citation_count": "No citation data available"
    },
    {
        "title": "Comparative analysis of feature-based ML and CNN for binucleated erythroblast quantification in myelodysplastic syndrome patients using imaging flow cytometry data",
        "abstract": "No abstract available",
        "citation_count": "No citation data available"
    },
    {
        "title": "A new method based on YOLOv5 and multiscale data augmentation for visual inspection in substation",
        "abstract": "No abstract available",
        "citation_count": "No citation data available"
    },
    {
        "title": "Real-time near infrared artificial intelligence using scalable non-expert crowdsourcing in colorectal surgery",
        "abstract": "No abstract available",
        "citation_count": "No citation data available"
    },
    {
        "title": "Assessing ChatGPT 4.0’s test performance and clinical diagnostic accuracy on USMLE STEP 2 CK and clinical case reports",
        "abstract": "No abstract available",
        "citation_count": "No citation data available"
    },
    {
        "title": "Hybrid cheetah particle swarm optimization based optimal hierarchical control of multiple microgrids",
        "abstract": "No abstract available",
        "citation_count": "No citation data available"
    },
    {
        "title": "FastMRI Prostate: A public, biparametric MRI dataset to advance machine learning for prostate cancer imaging",
        "abstract": "No abstract available",
        "citation_count": "No citation data available"
    },
    {
        "title": "Performance of ChatGPT on the Taiwan urology board examination: insights into current strengths and shortcomings",
        "abstract": "No abstract available",
        "citation_count": "No citation data available"
    },
    {
        "title": "Neural networks and particle swarm for transformer oil diagnosis by dissolved gas analysis",
        "abstract": "No abstract available",
        "citation_count": "No citation data available"
    },
    {
        "title": "Harnessing generative artificial intelligence for meningioma prediction: a correspondence",
        "abstract": "No abstract available",
        "citation_count": "No citation data available"
    },
    {
        "title": "Streamlining neuroradiology workflow with AI for improved cerebrovascular structure monitoring",
        "abstract": "No abstract available",
        "citation_count": "No citation data available"
    },
    {
        "title": "Managing the race to the moon: Global policy and governance in Artificial Intelligence regulation—A contemporary overview and an analysis of socioeconomic consequences",
        "abstract": "No abstract available",
        "citation_count": "No citation data available"
    },
    {
        "title": "Is AI 3D-printed PSI an accurate option for patients with developmental dysplasia of the hip undergoing THA?",
        "abstract": "No abstract available",
        "citation_count": "No citation data available"
    },
    {
        "title": "AI assessment tools for decision-making on telemedicine: liability in case of mistakes",
        "abstract": "No abstract available",
        "citation_count": "No citation data available"
    },
    {
        "title": "A bibliometric analysis of financial technology: unveiling the landscape of a rapidly evolving field",
        "abstract": "No abstract available",
        "citation_count": "No citation data available"
    },
    {
        "title": "Opportunities and challenges of integrating artificial intelligence in China's elderly care services",
        "abstract": "No abstract available",
        "citation_count": "No citation data available"
    },
    {
        "title": "The influence of AI on the economic growth of different regions in China",
        "abstract": "No abstract available",
        "citation_count": "No citation data available"
    },
    {
        "title": "The content intelligence: an argument against the lethality of artificial intelligence",
        "abstract": "No abstract available",
        "citation_count": "No citation data available"
    },
    {
        "title": "Autonomous fetal morphology scan: deep learning + clustering merger – the second pair of eyes behind the doctor",
        "abstract": "No abstract available",
        "citation_count": "No citation data available"
    },
    {
        "title": "A Cluster-Based Bibliometric Analysis of the Emerging Technological Landscape in Logistics using Vosviewer",
        "abstract": "No abstract available",
        "citation_count": "No citation data available"
    },
    {
        "title": "An overview of artificial intelligence in the field of genomics",
        "abstract": "No abstract available",
        "citation_count": "No citation data available"
    },
    {
        "title": "Unraveling the interplay of ferroptosis and immune dysregulation in diabetic kidney disease: a comprehensive molecular analysis",
        "abstract": "No abstract available",
        "citation_count": "No citation data available"
    },
    {
        "title": "Continued versus discontinued oxytocin stimulation in the active phase of labour (CONDISOX): individual management based on artificial intelligence - a secondary analysis",
        "abstract": "No abstract available",
        "citation_count": "No citation data available"
    },
    {
        "title": "Exploring the use of ChatGPT to analyze student course evaluation comments",
        "abstract": "No abstract available",
        "citation_count": "No citation data available"
    },
    {
        "title": "Enhancing lung cancer diagnosis with data fusion and mobile edge computing using DenseNet and CNN",
        "abstract": "No abstract available",
        "citation_count": "No citation data available"
    },
    {
        "title": "Immunological and molecular diagnostic techniques in fish health: present and future prospectus",
        "abstract": "No abstract available",
        "citation_count": "No citation data available"
    },
    {
        "title": "Hybrid Gamification and AI Tutoring Framework using Machine Learning and Adaptive Neuro-Fuzzy Inference System",
        "abstract": "No abstract available",
        "citation_count": "No citation data available"
    },
    {
        "title": "Automatic inference of ICD-10 codes from German ophthalmologic physicians’ letters using natural language processing",
        "abstract": "No abstract available",
        "citation_count": "No citation data available"
    },
    {
        "title": "Research ethics and artificial intelligence for global health: perspectives from the global forum on bioethics in research",
        "abstract": "No abstract available",
        "citation_count": "No citation data available"
    },
    {
        "title": "Sarcopenia and adipose tissue evaluation by artificial intelligence predicts the overall survival after TAVI",
        "abstract": "No abstract available",
        "citation_count": "No citation data available"
    },
    {
        "title": "Policy framework for the utilization of generative AI",
        "abstract": "No abstract available",
        "citation_count": "No citation data available"
    },
    {
        "title": "Opportunities, challenges, and benefits of AI innovation in government services: a review",
        "abstract": "No abstract available",
        "citation_count": "No citation data available"
    },
    {
        "title": "Perceptography unveils the causal contribution of inferior temporal cortex to visual perception",
        "abstract": "No abstract available",
        "citation_count": "No citation data available"
    },
    {
        "title": "Navigating the impact: a study of editors’ and proofreaders’ perceptions of AI tools in editing and proofreading",
        "abstract": "No abstract available",
        "citation_count": "No citation data available"
    },
    {
        "title": "The activity and immune dynamics of PD-1 inhibition on high-risk pulmonary ground glass opacity lesions: insights from a single-arm, phase II trial",
        "abstract": "No abstract available",
        "citation_count": "No citation data available"
    },
    {
        "title": "Evaluation of the consistency of the MRI- based AI segmentation cartilage model using the natural tibial plateau cartilage",
        "abstract": "No abstract available",
        "citation_count": "No citation data available"
    },
    {
        "title": "Comprehensive characterization of cardiac contraction for improved post-infarction risk assessment",
        "abstract": "No abstract available",
        "citation_count": "No citation data available"
    },
    {
        "title": "ChatGPT: Friend or foe of patients with sleep-related breathing disorders?",
        "abstract": "No abstract available",
        "citation_count": "No citation data available"
    },
    {
        "title": "Proactive Polypharmacy Management Using Large Language Models: Opportunities to Enhance Geriatric Care",
        "abstract": "No abstract available",
        "citation_count": "No citation data available"
    },
    {
        "title": "The development of chimeric antigen receptor T-cells against CD70 for renal cell carcinoma treatment",
        "abstract": "No abstract available",
        "citation_count": "No citation data available"
    },
    {
        "title": "Balancing the scale: navigating ethical and practical challenges of artificial intelligence (AI) integration in legal practices",
        "abstract": "No abstract available",
        "citation_count": "No citation data available"
    },
    {
        "title": "Automatic printed circuit board inspection: a comprehensible survey",
        "abstract": "No abstract available",
        "citation_count": "No citation data available"
    },
    {
        "title": "An efficient beaconing of bluetooth low energy by decision making algorithm",
        "abstract": "No abstract available",
        "citation_count": "No citation data available"
    },
    {
        "title": "Between artificial intelligence and customer experience: a literature review on the intersection",
        "abstract": "No abstract available",
        "citation_count": "No citation data available"
    },
    {
        "title": "Managerial insights for AI/ML implementation: a playbook for successful organizational integration",
        "abstract": "No abstract available",
        "citation_count": "No citation data available"
    },
    {
        "title": "AI: the future of humanity",
        "abstract": "No abstract available",
        "citation_count": "No citation data available"
    },
    {
        "title": "Predicting non-muscle invasive bladder cancer outcomes using artificial intelligence: a systematic review using APPRAISE-AI",
        "abstract": "No abstract available",
        "citation_count": "No citation data available"
    },
    {
        "title": "Generative approaches for solving tangram puzzles",
        "abstract": "No abstract available",
        "citation_count": "No citation data available"
    },
    {
        "title": "Explainable and interpretable artificial intelligence in medicine: a systematic bibliometric review",
        "abstract": "No abstract available",
        "citation_count": "No citation data available"
    },
    {
        "title": "Maximizing solar power generation through conventional and digital MPPT techniques: a comparative analysis",
        "abstract": "No abstract available",
        "citation_count": "No citation data available"
    },
    {
        "title": "Standardized nomenclature for litigational legal prompting in generative language models",
        "abstract": "No abstract available",
        "citation_count": "No citation data available"
    },
    {
        "title": "Artificial intelligence of things for smart cities: advanced solutions for enhancing transportation safety",
        "abstract": "No abstract available",
        "citation_count": "No citation data available"
    },
    {
        "title": "Epistemic integration and social segregation of AI in neuroscience",
        "abstract": "No abstract available",
        "citation_count": "No citation data available"
    },
    {
        "title": "Validating the knowledge represented by a self-organizing map with an expert-derived knowledge structure",
        "abstract": "No abstract available",
        "citation_count": "No citation data available"
    },
    {
        "title": "Development of an Interpretable Deep Learning Model for Pathological Tumor Response Assessment After Neoadjuvant Therapy",
        "abstract": "No abstract available",
        "citation_count": "No citation data available"
    },
    {
        "title": "A New Kind of Atomic Force Microscopy Scan Control Enabled by Artificial Intelligence: Concept for Achieving Tip and Sample Safety Through Asymmetric Control",
        "abstract": "No abstract available",
        "citation_count": "No citation data available"
    },
    {
        "title": "Glucocorticoid therapy for sepsis in the AI era: a survey on current and future approaches",
        "abstract": "No abstract available",
        "citation_count": "No citation data available"
    },
    {
        "title": "From UK-2A to florylpicoxamid: Active learning to identify a mimic of a macrocyclic natural product",
        "abstract": "No abstract available",
        "citation_count": "No citation data available"
    },
    {
        "title": "Protocol for a systematic review and meta-analysis of the prevalence of mental illness among nursing home residents",
        "abstract": "No abstract available",
        "citation_count": "No citation data available"
    },
    {
        "title": "Automated quantification of avian influenza virus antigen in different organs",
        "abstract": "No abstract available",
        "citation_count": "No citation data available"
    },
    {
        "title": "Development of a smartphone screening test for preclinical Alzheimer’s disease and validation across the dementia continuum",
        "abstract": "No abstract available",
        "citation_count": "No citation data available"
    },
    {
        "title": "Body composition impacts outcome of bronchoscopic lung volume reduction in patients with severe emphysema: a fully automated CT-based analysis",
        "abstract": "No abstract available",
        "citation_count": "No citation data available"
    },
    {
        "title": "Performance and robustness of small molecule retention time prediction with molecular graph neural networks in industrial drug discovery campaigns",
        "abstract": "No abstract available",
        "citation_count": "No citation data available"
    },
    {
        "title": "Decision support systems for antibiotic prescription in hospitals: a survey with hospital managers on factors for implementation",
        "abstract": "No abstract available",
        "citation_count": "No citation data available"
    },
    {
        "title": "Medical, dental, and nursing students’ attitudes and knowledge towards artificial intelligence: a systematic review and meta-analysis",
        "abstract": "No abstract available",
        "citation_count": "No citation data available"
    },
    {
        "title": "An explainable machine learning model for prediction of high-risk nonalcoholic steatohepatitis",
        "abstract": "No abstract available",
        "citation_count": "No citation data available"
    },
    {
        "title": "Enhancing academic performance prediction with temporal graph networks for massive open online courses",
        "abstract": "No abstract available",
        "citation_count": "No citation data available"
    },
    {
        "title": "The application of improved densenet algorithm in accurate image recognition",
        "abstract": "No abstract available",
        "citation_count": "No citation data available"
    },
    {
        "title": "Body composition assessment by artificial intelligence can be a predictive tool for short-term postoperative complications in Hartmann’s reversals",
        "abstract": "No abstract available",
        "citation_count": "No citation data available"
    },
    {
        "title": "Research on the cognitive neural mechanism of privacy empowerment illusion cues regarding comprehensibility and interpretability for privacy disclosures",
        "abstract": "No abstract available",
        "citation_count": "No citation data available"
    },
    {
        "title": "Reconstruction of 3D knee MRI using deep learning and compressed sensing: a validation study on healthy volunteers",
        "abstract": "No abstract available",
        "citation_count": "No citation data available"
    },
    {
        "title": "Construction of a training dataset for a sentiment analysis model of dairy products tweets in Brazil",
        "abstract": "No abstract available",
        "citation_count": "No citation data available"
    },
    {
        "title": "Understanding genetic variability: exploring large-scale copy number variants through non-invasive prenatal testing in European populations",
        "abstract": "No abstract available",
        "citation_count": "No citation data available"
    },
    {
        "title": "Explainable machine learning model for identifying key gut microbes and metabolites biomarkers associated with myasthenia gravis",
        "abstract": "No abstract available",
        "citation_count": "No citation data available"
    }
]